﻿{
  "source": "Objects Spritesheet",
  "category": "objects",
  "images": {
    // Balls
    "Ball": {
      "x": 0,
      "y": 0,
      "width": 20,
      "height": 20
    },

    // Bombs
    "Bomb": {
      "x": 0,
      "y": 30,
      "width": 20,
      "height": 20
    },
    "Round Bomb": {
      "x": 30,
      "y": 30,
      "width": 20,
      "height": 20
    },
    "Round Bomb - Flash": {
      "x": 60,
      "y": 30,
      "width": 20,
      "height": 20
    },

    // Robot States
    "Robot - Idle": {
      "x": 0,
      "y": 60,
      "width": 20,
      "height": 20
    },
    "Robot - Up": {
      "x": 30,
      "y": 60,
      "width": 20,
      "height": 20
    },
    "Robot - Right": {
      "x": 60,
      "y": 60,
      "width": 20,
      "height": 20
    },
    "Robot - Down": {
      "x": 90,
      "y": 60,
      "width": 20,
      "height": 20
    },
    "Robot - Left": {
      "x": 120,
      "y": 60,
      "width": 20,
      "height": 20
    },
    "Robot - Up-Right": {
      "x": 150,
      "y": 60,
      "width": 20,
      "height": 20
    },
    "Robot - Down-Right": {
      "x": 180,
      "y": 60,
      "width": 20,
      "height": 20
    },
    "Robot - Down-Left": {
      "x": 210,
      "y": 60,
      "width": 20,
      "height": 20
    },
    "Robot - Up-Left": {
      "x": 240,
      "y": 60,
      "width": 20,
      "height": 20
    },
    "Robot - Flash": {
      "x": 270,
      "y": 60,
      "width": 20,
      "height": 20
    },

    // Obstacles
    "Box": {
      "x": 0,
      "y": 90,
      "width": 20,
      "height": 20
    },
    "Glass Wall": {
      "x": 30,
      "y": 90,
      "width": 20,
      "height": 20
    },
    "Pylon": {
      "x": 60,
      "y": 90,
      "width": 20,
      "height": 20
    },

    // Effects
    "Crater": {
      "x": 0,
      "y": 120,
      "width": 20,
      "height": 20
    }
  }
}