﻿{
  "source": "Terrain Spritesheet",
  "category": "terrain",
  "images": {
    // Terrain
    "Snow": {
      "x": 0,
      "y": 0,
      "width": 20,
      "height": 20
    },
    "Ice": {
      "x": 30,
      "y": 0,
      "width": 20,
      "height": 20
    },
    "Water": {
      "x": 60,
      "y": 0,
      "width": 20,
      "height": 20
    },
    "Dust": {
      "x": 90,
      "y": 0,
      "width": 20,
      "height": 20
    },
    "Grass": {
      "x": 120,
      "y": 0,
      "width": 20,
      "height": 20
    },
    "Concrete Block": {
      "x": 150,
      "y": 0,
      "width": 20,
      "height": 20
    },
    "Concrete Block - Ice": {
      "x": 180,
      "y": 0,
      "width": 20,
      "height": 20
    },
    "Concrete Block - Dust": {
      "x": 210,
      "y": 0,
      "width": 20,
      "height": 20
    },

    // Walls
    "Brick Wall": {
      "x": 0,
      "y": 30,
      "width": 20,
      "height": 20
    },
    "Concrete Wall - No Bars": {
      "x": 30,
      "y": 30,
      "width": 20,
      "height": 20
    },
    "Concrete Wall - One Bar": {
      "x": 60,
      "y": 30,
      "width": 20,
      "height": 20
    },
    "Concrete Wall - Horizontal Bars": {
      "x": 90,
      "y": 30,
      "width": 20,
      "height": 20
    },
    "Concrete Wall - Vertical Bars": {
      "x": 120,
      "y": 30,
      "width": 20,
      "height": 20
    },

    // Targets
    "Target": {
      "x": 0,
      "y": 60,
      "width": 20,
      "height": 20
    }
  }
}