﻿{
  "meta": {
    "bombs-count": 3,
    "cell-size": {
      "width": 20,
      "height": 20
    },
    "map-size": {
      "width": 11,
      "height": 7
    }
  },
  "map": {
    "Player": {
      "x": 5,
      "y": 3,
      "offset-x": 0.5,
      "offset-y": 0.5
    },
    "Ball": [
      {
        "x": 7,
        "y": 3,
        "offset-x": -0.2,
        "offset-y": 0.1
      },
      {
        "x": 8,
        "y": 2
      }
    ],
    "Target": [
      {
        "x": 1,
        "y": 1
      },
      {
        "x": 1,
        "y": 2
      },
      {
        "x": 1,
        "y": 3
      }
    ],
    "Terrain": {
      "Dust": [
        {
          "x": 1,
          "y": 1
        },
        {
          "x": 1,
          "y": 2
        },
        {
          "x": 1,
          "y": 3
        },

        {
          "x": 2,
          "y": 1
        },
        {
          "x": 2,
          "y": 2
        },
        {
          "x": 2,
          "y": 3
        },
        {
          "x": 2,
          "y": 4
        },

        {
          "x": 3,
          "y": 1
        },
        {
          "x": 3,
          "y": 2
        },
        {
          "x": 3,
          "y": 3
        },
        {
          "x": 3,
          "y": 4
        },
        {
          "x": 3,
          "y": 5
        },

        {
          "x": 4,
          "y": 1
        },
        {
          "x": 4,
          "y": 2
        },
        {
          "x": 4,
          "y": 3
        },
        {
          "x": 4,
          "y": 4
        },
        {
          "x": 4,
          "y": 5
        },

        {
          "x": 5,
          "y": 1
        },
        {
          "x": 5,
          "y": 2
        },
        {
          "x": 5,
          "y": 3
        },
        {
          "x": 5,
          "y": 4
        },
        {
          "x": 5,
          "y": 5
        },

        {
          "x": 6,
          "y": 1
        },
        {
          "x": 6,
          "y": 2
        },
        {
          "x": 6,
          "y": 3
        },
        {
          "x": 6,
          "y": 4
        },
        {
          "x": 6,
          "y": 5
        },

        {
          "x": 7,
          "y": 1
        },
        {
          "x": 7,
          "y": 2
        },
        {
          "x": 7,
          "y": 3
        },
        {
          "x": 7,
          "y": 4
        },
        {
          "x": 7,
          "y": 5
        },

        {
          "x": 8,
          "y": 1
        },
        {
          "x": 8,
          "y": 2
        },
        {
          "x": 8,
          "y": 3
        },
        {
          "x": 8,
          "y": 4
        },

        {
          "x": 9,
          "y": 1
        },
        {
          "x": 9,
          "y": 2
        },
        {
          "x": 9,
          "y": 3
        }
      ],
      "Water": [
        {
          "x": 1,
          "y": 4
        },
        {
          "x": 9,
          "y": 4
        },

        {
          "x": 1,
          "y": 5
        },
        {
          "x": 2,
          "y": 5
        },
        {
          "x": 8,
          "y": 5
        },
        {
          "x": 9,
          "y": 5
        }
      ]
    },
    "Walls": {
      "Brick Wall": [
        {
          "x": 0,
          "y": 0
        },
        {
          "x": 1,
          "y": 0
        },
        {
          "x": 2,
          "y": 0
        },
        {
          "x": 3,
          "y": 0
        },
        {
          "x": 4,
          "y": 0
        },
        {
          "x": 5,
          "y": 0
        },
        {
          "x": 6,
          "y": 0
        },
        {
          "x": 7,
          "y": 0
        },
        {
          "x": 8,
          "y": 0
        },
        {
          "x": 9,
          "y": 0
        },

        {
          "x": 10,
          "y": 0
        },
        {
          "x": 10,
          "y": 1
        },
        {
          "x": 10,
          "y": 2
        },
        {
          "x": 10,
          "y": 3
        },
        {
          "x": 10,
          "y": 4
        },
        {
          "x": 10,
          "y": 5
        },
        {
          "x": 10,
          "y": 6
        },

        {
          "x": 0,
          "y": 6
        },
        {
          "x": 1,
          "y": 6
        },
        {
          "x": 2,
          "y": 6
        },
        {
          "x": 3,
          "y": 6
        },
        {
          "x": 4,
          "y": 6
        },
        {
          "x": 5,
          "y": 6
        },
        {
          "x": 6,
          "y": 6
        },
        {
          "x": 7,
          "y": 6
        },
        {
          "x": 8,
          "y": 6
        },
        {
          "x": 9,
          "y": 6
        },

        {
          "x": 0,
          "y": 1
        },
        {
          "x": 0,
          "y": 2
        },
        {
          "x": 0,
          "y": 3
        },
        {
          "x": 0,
          "y": 4
        },
        {
          "x": 0,
          "y": 5
        }
      ]
    },
    "Objects": {
      "Box": [
        {
          "x": 9,
          "y": 3
        }
      ],
      "Pylon": [
        {
          "x": 7,
          "y": 4
        }
      ],
      "Glass Wall": [
        {
          "x": 2,
          "y": 1
        },
        {
          "x": 2,
          "y": 2
        },
        {
          "x": 2,
          "y": 3
        },
        {
          "x": 2,
          "y": 4,
          "offset-x": -0.5,
          "offset-y": 0.3,
          "rotation": 45
        }
      ]
    }
  }
}